{
  "type": "service_account",
  "project_id": "imoovo-agent-prod",
  "private_key_id": "dabb052b73e117b31104e703b33b10a31b3424b9",
  "private_key": "-----BEGIN PRIVATE KEY-----\nMIIEvgIBADANBgkqhkiG9w0BAQEFAASCBKgwggSkAgEAAoIBAQCraBlP9zOnpo+z\nekNDB9wOpzZG/wNXtbk6Pmr7ZOy6YN1uWH8N+jfQBUmSMrBC3DsX9oXURmk0rT65\n9t6Tu1gpAfUu1x1+LnD0oFRhSiyig2MUMUcWYowzhG6ZlzVK0Sbns0pJyR175nAv\nC/8zBveoGVkCxgcdWQNOkjoRMSrSJiT/ppVBvHIo1kOHlQPPcgCWABpt3lYgBxcP\nxI9JPRxlqeRyMI+F1Js33pXORG4/5C+ghvAwbRkPhTKsaoHM6wTjYxu/Qufz3209\nQl1yXjDWgDI7Qsuc7sKTaPeRuh0cBWIcICaWuicd38ed+HDKpWeTlE0Y9Rikxdtv\nfym8oQNHAgMBAAECggEAU1t3P9/Qw53pcZeqYU1Ps+KWr1UyS3PpRg132pU82PDl\njtXDyEjg3q3LlylGdeWDaYZulAq//CmqgSaxHLg1yg+VLLfZtHUiYp0cHApGBayO\nwRGr6BN56k3juZcDCEUJvhF/tb10NL6e3QphC/A9/YaCNqqWaCvTQ2EykwzNrc+q\nIr7pK0s7cWbrF4fS78fHUS5fMRYf1RvmWnV05Ka0tZyWYrcpVsurFsEOO2DHAcb+\nyas1XHLMA2hi6Su09q2RE8QqiwY3H7KAcPHGA4a4FdzhnFdcwn8Il+Xu3buw4LvS\n3r2azy09rxnIVBSXAGNi+4uGfUJFCJD8ripOfUi2BQKBgQDbm50ZfE5XZIZq4ZF/\neX23Ecd2PyThFqQYCU3GESQ2NoPhtVSO313Gz1w/backQLwqvAinRRTlQJEp52wc\ncMeqQJoZiA/PG8xwoQPIGk+bk02c6Bn3G+FZQMQRIGc3R6H5LZ+4Ke/9FhBjfI5c\n0riaWqXyWM3pl0oz9/zF9CjTcwKBgQDHz6cfBWhlTyFlU2gc98QsVev8jcBiuasx\nxSjHJ2rgoZ8tYe8THupyaU2cGx6IcGMSXH/NfYvewuGvn4GaC12R3Oy5wU/oVX0g\nvF8rqksX2KFCi/GYca4pA1yPP0hMXrjiYPpCmkzQXiMVcpndgH2EC4pt0BhSYDYI\nWcUf4K9j3QKBgQCs+8PguljfYBC9ihbY6bMMDFYon46GOxZg1JtNpFz40zJJDVOh\nAvNUUixgzhf1Z4SQyPKsB69w8c4myuMO+Ate4WpBKDsDser04PAgpBEHBB4DtZQW\nYQC+FFUdBIApPCSrKbQBFg+zNLkOFKPzHA1LkJHc9vSjxoctrm6O40dxXwKBgGB1\neIJbQ/iUaNTXnQ1O9x9II3J6pAOFCoYuXe82sjvbClMIUjfy1s+A0nyoAudvCgTV\nLsVu9FUH05fK8vAAyJ0gAA/0qLTKgGuLRI552WKbq83KbUlgp+kYvFhS/n4PxEVU\n97urbaWxrFIwTuNFolJal+tHaFZsJ+mEHMu01jbpAoGBAJ70wI2c2n6vMyW83qN1\nyBFhz7rNudNKDDZvddGXEG4mgkZYrc5m9WFzi+sl7LuU1HldpBusMurinNsgNO3p\nmAMj3QoqS3JxF1Gh05S2FlEFi0e6KqKgZl0XqpsX1BOaXH9F8gmBHn7y8PCT1YNr\nk4s11oYAIDfy8pBwBA031hYx\n-----END PRIVATE KEY-----\n",
  "client_email": "firebase-adminsdk-vdmlt@imoovo-agent-prod.iam.gserviceaccount.com",
  "client_id": "115196507185374084812",
  "auth_uri": "https://accounts.google.com/o/oauth2/auth",
  "token_uri": "https://oauth2.googleapis.com/token",
  "auth_provider_x509_cert_url": "https://www.googleapis.com/oauth2/v1/certs",
  "client_x509_cert_url": "https://www.googleapis.com/robot/v1/metadata/x509/firebase-adminsdk-vdmlt%40imoovo-agent-prod.iam.gserviceaccount.com"
}
